<?xml version="1.0" encoding="utf-8"?>
<!-- Generator: Adobe Illustrator 25.4.1, SVG Export Plug-In . SVG Version: 6.00 Build 0)  -->
<svg version="1.1" id="Layer_1" xmlns="http://www.w3.org/2000/svg" xmlns:xlink="http://www.w3.org/1999/xlink" x="0px" y="0px"
	 viewBox="0 0 21.2 21.2" style="enable-background:new 0 0 21.2 21.2;" xml:space="preserve">
<style type="text/css">
	.st0{fill:#FFFFFF;}
</style>
<g id="Camada_2">
	<g id="POPUP">
		<rect x="8.1" y="-1.9" transform="matrix(0.7071 -0.7071 0.7071 0.7071 -4.401 10.6019)" class="st0" width="5" height="25"/>
		<rect x="-1.9" y="8.1" transform="matrix(0.7071 -0.7071 0.7071 0.7071 -4.401 10.6019)" class="st0" width="25" height="5"/>
	</g>
</g>
</svg>
